Content-Type: multipart/mixed; boundary="==========2024070515521817201875381188==";

--==========2024070515521817201875381188==
Content-Type: multipart/mixed; boundary="==========20240705155218172018753824891=="

--==========20240705155218172018753824891==
Content-Type: text/plain; charset=UTF-8; format=flowed
Content-Transfer-Encoding: base64

RGFzIGlzdCBkZXIgTWFpbHRleHQuCgpJbSBIZWFkZXIgYmVmaW5kZW4gc2ljaCBkaWUgQXV0b2Ny
eXB0LURhdGVuLgoKRGVyIMO2ZmZlbnRsaWNoZSBTY2hsw7xzc2VsIGthbm4gZGlyZWt0IGluIGdw
ZyBpbXBvcnRpZXJ0IHdlcmRlbi4KCkhhdmUgRlVOCg==

--==========20240705155218172018753824891==--

--==========2024070515521817201875381188==--
